%YAML 1.1
%TAG !u! tag:unity3d.com,2011:
--- !u!21 &2100000
Material:
  serializedVersion: 6
  m_ObjectHideFlags: 0
  m_CorrespondingSourceObject: {fileID: 0}
  m_PrefabInstance: {fileID: 0}
  m_PrefabAsset: {fileID: 0}
  m_Name: GroundLayerMat
  m_Shader: {fileID: -6465566751694194690, guid: fa4749d278da6360696ba0fedb5c932e,
    type: 3}
  m_ShaderKeywords: 
  m_LightmapFlags: 4
  m_EnableInstancingVariants: 0
  m_DoubleSidedGI: 0
  m_CustomRenderQueue: -1
  stringTagMap: {}
  disabledShaderPasses: []
  m_SavedProperties:
    serializedVersion: 3
    m_TexEnvs: []
    m_Floats: []
    m_Colors:
    - Color_52A8CF47: {r: 0.34199998, g: 0.24909896, b: 0.19358486, a: 1}
    - Color_5C554739: {r: 0.601, g: 0.48026025, b: 0.41956598, a: 1}
    - Color_E2E1956: {r: 0.53237, g: 0.766, b: 0.5490578, a: 1}
